Changelog • wizirt
…
## 
## 
## $method$pred
## named list()
## 
## 
## $engine
## [1] "mirt"
## 
## attr(,"class")
## [1] "irt"        "model_spec"
## 
## $fit
## $fit$data
## # A tibble: 75 x 25
##        A     B     C     D     E     F     G     H     I     J     K     L     M
##    <int> <int> <int> <int> <int> <int> <int> <int> <int> <int> <int> <int> <int>
##  1     1     0     1     1     0     1     1     1     1     1     0     1     1
##  2     1     1     1     1     1     1     1     0     1     1     1     1     1
##  3     0     1     0     1     0     1     1     1     1     0     1     1     1
##  4     0     0     0     0     0     0     1     0     0     0     0     1     1
##  5     0     1     0     0     0     1     1     1     1     1     1     1     1
##  6     0     1     1     1     1     1     1     1     1     1     1     1     1
##  7     1     1     1     1     0     1     1     1     1     1     1     1     1
##  8     1     1     1     1     1     1     1     0     1     0     0     1     1
##  9     0     1     1     0     1     0     1     1     0     1     1     1     1
## 10     0     0     0     1     1     1     0     1     1     1     0     1     1
## # ... with 65 more rows, and 12 more variables: N <int>, O <int>, P <int>,
## #   Q <int>, R <int>, S <int>, T <int>, U <int>, V <int>, W <int>, X <int>,
## #   Y <int>
## 
## $fit$model
## $fit$model$engine
## $fit$model$engine$pkg
## [1] "mirt"
## 
…
## [1] "EM"
## 
## $fit$estimation$criteria
## [1] 1e-05
## 
## $fit$estimation$iterations
## [1] 76
## 
## $fit$estimation$log_lik
## [1] -1009.376
## 
## 
## $fit$parameters
## $fit$parameters$coefficients
## # A tibble: 25 x 4
##    item  difficulty discrimination guessing
##    <chr>      <dbl>          <dbl>    <dbl>
##  1 A         -0.606         1.75          0
##  2 B         -1.87          0.580         0
##  3 C         -2.26          0.624         0
##  4 D         -2.32          0.363         0
##  5 E         10.5          -0.0904        0
##  6 F         -5.38          0.177         0
##  7 G         -1.71          0.952         0
##  8 H         -0.996         1.22          0
##  9 I         -2.63          0.459         0
## 10 J         -2.70          0.416         0
## # ... with 15 more rows
## 
## $fit$parameters$persons
## # A tibble: 75 x 3
##    ability std_err   ids
##      <dbl>   <dbl> <int>
##  1 -0.0216   0.533     1
##  2  0.662    0.640     2
##  3 -0.201    0.510     3
##  4 -1.93     0.556     4
##  5 -0.735    0.472     5
##  6 -0.503    0.482     6
##  7  0.874    0.674     7
##  8 -0.746    0.472     8
##  9 -0.172    0.514     9
## 10 -1.05     0.476    10
## # ... with 65 more rows
## 
## 
## $fit$original_object
## 
## Call:
## mirt::mirt(data = data, model = 1, itemtype = item_type, SE = T, 
##     TOL = tol, verbose = F)
## 
…
Anova method for comparing models

# Not yet implemented xxxx

Provide item information

Parameter estimates

# Should make this a print option xxxx
my_model$fit$parameters$coefficients

## # A tibble: 25 x 4
##    item  difficulty discrimination guessing
##    <chr>      <dbl>          <dbl>    <dbl>
##  1 A         -0.606         1.75          0
##  2 B         -1.87          0.580         0
##  3 C         -2.26          0.624         0
##  4 D         -2.32          0.363         0
##  5 E         10.5          -0.0904        0
##  6 F         -5.38          0.177         0
##  7 G         -1.71          0.952         0
##  8 H         -0.996         1.22          0
##  9 I         -2.63          0.459         0
## 10 J         -2.70          0.416         0
## # ... with 15 more rows
Summary statistics

# xxxx
# does the combined one work? Let's give it a good name xxxx
plot.irt(my_model, type = 'test_info') # I need a plot of the item locations too. xxxx
# I feel like I creat more information than is showcased here. Make it more obvious. xxxx

Provide item-fit information

Conditional dependence

# assumptions <- irt_assume(my_model) # not run xxxx
assumptions$ld

## # A tibble: 300 x 5
##    item_1 item_2    LD    pvals    ccov
##    <chr>  <chr>  <dbl>    <dbl>   <dbl>
##  1 A      W      0.405 0.000312 -0.0269
##  2 J      P      0.399 0.000398  0.0584
##  3 K      W      0.363 0.00139  -0.0150
##  4 A      S      0.331 0.00371   0.0393
##  5 A      K      0.315 0.00592  -0.0154
##  6 O      T      0.309 0.00695   0.0472
##  7 D      I      0.303 0.00816   0.0461
##  8 H      W      0.295 0.0101   -0.0151
##  9 M      Q      0.285 0.0132    0.0495
## 10 H      P      0.282 0.0142    0.0239
## # ... with 290 more rows

Fit statistics

ifa <- irt_item_fit(my_model, stats = c('Zh', 'X2', 'G2', 'infit'))

## Warning in sqrt(colSums((pf$C/pf$W^2)/N^2) - 1/N): NaNs produced

## Warning in sqrt(colSums(pf$C - pf$W^2)/colSums(pf$W)^2): NaNs produced

wizirt2:::print.ifa(ifa) # export it so wizirt2::: is not needed.

## # A tibble: 25 x 17
##    item  difficulty discrimination guessing       Zh  outfit z.outfit   infit
##    <chr>      <dbl>          <dbl>    <dbl>    <dbl>   <dbl>    <dbl>   <dbl>
##  1 A         -0.606         1.75          0 -1.36e+1 5.21e+0     9.15 2.42e+0
##  2 B         -1.87          0.580         0 -2.30e+1 7.32e+0    10.5  6.20e+0
##  3 C         -2.26          0.624         0 -2.78e+1 1.10e+1    10.6  8.89e+0
##  4 D         -2.32          0.363         0 -2.79e+1 1.06e+1    10.7  9.86e+0
##  5 E         10.5          -0.0904        0  4.62e-2 2.58e-7   -18.9  2.58e-7
##  6 F         -5.38          0.177         0 -1.27e+2 2.19e+2    11.1  2.15e+2
##  7 G         -1.71          0.952         0 -2.29e+1 7.60e+0    10.5  5.02e+0
##  8 H         -0.996         1.22          0 -1.68e+1 4.55e+0     9.74 2.81e+0
##  9 I         -2.63          0.459         0 -3.26e+1 1.49e+1    10.7  1.32e+1
## 10 J         -2.70          0.416         0 -3.37e+1 1.58e+1    10.7  1.43e+1
## # ... with 15 more rows, and 9 more variables: z.infit <dbl>, X2 <dbl>,
## #   df.X2 <dbl>, RMSEA.X2 <dbl>, p.X2 <dbl>, G2 <dbl>, df.G2 <dbl>,
## #   RMSEA.G2 <dbl>, p.G2 <dbl>
…
Person location estimates (including SE)

my_model$fit$parameters$persons
plot.irt(my_model, type = 'theta') # Maybe add SE to plot as a line, we have SE xxxx

Provide person-fit information

pfa <- irt_person_fit(my_model, stats = c('Ht', 'lzstar', 'U3'))

Global detection (Ht, lz*, infit and outfit, with cutoffs where applicable)

wizirt2:::print.pfa(pfa) # export it so wizirt2::: is not needed.

## # A tibble: 75 x 9
##    ability std_err   ids      Ht  Ht_cut   lzstar lzstar_cut    U3 U3_cut
##      <dbl>   <dbl> <int>   <dbl>   <dbl>    <dbl>      <dbl> <dbl>  <dbl>
##  1 -0.0216   0.533     1  0.0044 -0.0433   -0.133      -2.10 0.374  0.697
##  2  0.662    0.640     2  0.0174 -0.0433  -16.9        -2.10 0.386  0.697
##  3 -0.201    0.510     3  0.004  -0.0433   -6.89       -2.10 0.396  0.697
##  4 -1.93     0.556     4  0.0657 -0.0433 -511.         -2.10 0.208  0.697
##  5 -0.735    0.472     5  0.004  -0.0433  -72.1        -2.10 0.383  0.697
##  6 -0.503    0.482     6  0.0021 -0.0433  -29.9        -2.10 0.427  0.697
##  7  0.874    0.674     7  0.0125 -0.0433  NaN          -2.10 0.373  0.697
##  8 -0.746    0.472     8 -0.0159 -0.0433  -81.2        -2.10 0.486  0.697
##  9 -0.172    0.514     9  0.0274 -0.0433   -3.13       -2.10 0.286  0.697
## 10 -1.05     0.476    10  0.027  -0.0433 -129.         -2.10 0.285  0.697
## # ... with 65 more rows

Local detection (ICI or other)

# not yet implemented xxxx

Tabulation or presentation of response patterns (winsteps tables as guides)

wizirt2:::print.pfa(pfa, patterns = T) # get rid of '_' in patterns xxxx

## # A tibble: 75 x 10
##    ability std_err   ids      Ht  Ht_cut   lzstar lzstar_cut    U3 U3_cut
##      <dbl>   <dbl> <int>   <dbl>   <dbl>    <dbl>      <dbl> <dbl>  <dbl>
##  1 -0.0216   0.533     1  0.0044 -0.0433   -0.133      -2.10 0.374  0.697
##  2  0.662    0.640     2  0.0174 -0.0433  -16.9        -2.10 0.386  0.697
##  3 -0.201    0.510     3  0.004  -0.0433   -6.89       -2.10 0.396  0.697
##  4 -1.93     0.556     4  0.0657 -0.0433 -511.         -2.10 0.208  0.697
##  5 -0.735    0.472     5  0.004  -0.0433  -72.1        -2.10 0.383  0.697
##  6 -0.503    0.482     6  0.0021 -0.0433  -29.9        -2.10 0.427  0.697
##  7  0.874    0.674     7  0.0125 -0.0433  NaN          -2.10 0.373  0.697
##  8 -0.746    0.472     8 -0.0159 -0.0433  -81.2        -2.10 0.486  0.697
##  9 -0.172    0.514     9  0.0274 -0.0433   -3.13       -2.10 0.286  0.697
## 10 -1.05     0.476    10  0.027  -0.0433 -129.         -2.10 0.285  0.697
## # ... with 65 more rows, and 1 more variable: pattern <chr>
…
