A function for checking the assumptions of IRT. — irt_assume • wizirt
…
#> # A tibble: 5 x 3
#>   Statistics  Value Conclusion                 
#>   <chr>       <dbl> <chr>                      
#> 1 DETECT     -0.62  Essential Unidimensionality
#> 2 ASSI       -0.290 Essential Unidimensionality
#> 3 RATIO      -0.36  Essential Unidimensionality
#> 4 MADCOV100   1.69  NA                         
#> 5 MCOV100    -0.62  NA                         
print(assumptions, type = 'ld')

#> # A tibble: 300 x 5
#>    item_1 item_2 LD_std    pvals   ccov
#>    <chr>  <chr>   <dbl>    <dbl>  <dbl>
#>  1 A      W       0.405 0.000312 0.0241
#>  2 J      P       0.399 0.000398 0.0578
#>  3 K      W       0.363 0.00139  0.0286
#>  4 A      S       0.331 0.00371  0.0512
#>  5 A      K       0.315 0.00592  0.0255
#>  6 O      T       0.309 0.00695  0.0338
#>  7 D      I       0.303 0.00816  0.0382
#>  8 H      W       0.295 0.0101   0.0128
#>  9 M      Q       0.285 0.0132   0.0456
#> 10 H      P       0.282 0.0142   0.0243
#> # ... with 290 more rows
…
