Estimate an IRT model — wizirt • wizirt
…
#> # A tibble: 7 x 2
#>   parameter         value
#>   <chr>             <dbl>
#> 1 N Items           25   
#> 2 Avg Difficulty    -0.06
#> 3 Avg Diff (CTT)     0.75
#> 4 N Persons         75   
#> 5 Avg Ability        0   
#> 6 Avg % Correct     75   
#> 7 Avg % Completion 100   
print(my_model, type = "item")

#> # A tibble: 25 x 4
#>    item  difficulty discrimination guessing
#>    <chr>      <dbl>          <dbl>    <dbl>
#>  1 A         -0.606         1.75          0
#>  2 B         -1.87          0.580         0
#>  3 C         -2.26          0.624         0
#>  4 D         -2.32          0.363         0
#>  5 E         10.5          -0.0904        0
#>  6 F         -5.38          0.177         0
#>  7 G         -1.71          0.952         0
#>  8 H         -0.996         1.22          0
#>  9 I         -2.63          0.459         0
#> 10 J         -2.70          0.416         0
#> # ... with 15 more rows
print(my_model, type = "person")

#> # A tibble: 75 x 3
#>    ability std_err   ids
#>      <dbl>   <dbl> <int>
#>  1 -0.0216   0.533     1
#>  2  0.662    0.640     2
#>  3 -0.201    0.510     3
#>  4 -1.93     0.556     4
#>  5 -0.735    0.472     5
#>  6 -0.503    0.482     6
#>  7  0.874    0.674     7
#>  8 -0.746    0.472     8
#>  9 -0.172    0.514     9
#> 10 -1.05     0.476    10
#> # ... with 65 more rows
print(my_model, type = "na_item")

#> # A tibble: 25 x 3
#>    item  count  prop
#>    <chr> <dbl> <dbl>
#>  1 A         0     0
#>  2 B         0     0
#>  3 C         0     0
#>  4 D         0     0
#>  5 E         0     0
#>  6 F         0     0
#>  7 G         0     0
#>  8 H         0     0
#>  9 I         0     0
#> 10 J         0     0
#> # ... with 15 more rows
…
